{
    "headers": {
        "User-Agent": "sentinelhub-py/v3.0.2"
    },
    "payload": null,
    "timestamp": "2020-04-28T22:10:19.739833",
    "url": "https://services.sentinel-hub.com/ogc/wms/4ddaf7ef-5547-43fd-b53c-16abbf76d393?SERVICE=wms&WARNINGS=False&MAXCC=100.0&BBOX=-14.215141720430472%2C-75.63765440850564%2C-14.212454314475199%2C-75.63434467014613&FORMAT=image%2Fpng&CRS=EPSG%3A4326&TIME=2018-01-21T15%3A16%3A56%2F2018-01-21T15%3A16%3A56&WIDTH=512&HEIGHT=856&LAYERS=NDVI&REQUEST=GetMap&VERSION=1.3.0"
}