{
    "headers": {
        "User-Agent": "sentinelhub-py/v3.0.2"
    },
    "payload": null,
    "timestamp": "2020-04-28T22:18:33.339761",
    "url": "https://services.sentinel-hub.com/ogc/wms/4ddaf7ef-5547-43fd-b53c-16abbf76d393?SERVICE=wms&WARNINGS=False&MAXCC=100.0&BBOX=-14.216076963730377%2C-75.64033173320622%2C-14.213384589206255%2C-75.6370121373286&FORMAT=image%2Fpng&CRS=EPSG%3A4326&TIME=2018-03-27T15%3A17%3A02%2F2018-03-27T15%3A17%3A02&WIDTH=512&HEIGHT=856&LAYERS=NDVI&REQUEST=GetMap&VERSION=1.3.0"
}