{
    "headers": {
        "User-Agent": "sentinelhub-py/v3.0.2"
    },
    "payload": null,
    "timestamp": "2020-04-29T01:16:24.443190",
    "url": "https://services.sentinel-hub.com/ogc/wms/4ddaf7ef-5547-43fd-b53c-16abbf76d393?SERVICE=wms&WARNINGS=False&MAXCC=100.0&BBOX=-14.198813508297691%2C-75.64964409685477%2C-14.196107720636288%2C-75.6463550733476&FORMAT=image%2Fpng&CRS=EPSG%3A4326&TIME=2020-02-05T15%3A26%3A49%2F2020-02-05T15%3A26%3A49&WIDTH=512&HEIGHT=856&LAYERS=NDVI&REQUEST=GetMap&VERSION=1.3.0"
}