{
    "headers": {
        "User-Agent": "sentinelhub-py/v3.0.2"
    },
    "payload": null,
    "timestamp": "2020-04-28T22:47:45.665649",
    "url": "https://services.sentinel-hub.com/ogc/wms/4ddaf7ef-5547-43fd-b53c-16abbf76d393?SERVICE=wms&WARNINGS=False&MAXCC=100.0&BBOX=-14.19973524297276%2C-75.6523179645351%2C-14.19704295019232%2C-75.64903310741902&FORMAT=image%2Fpng&CRS=EPSG%3A4326&TIME=2020-04-20T15%3A26%3A52%2F2020-04-20T15%3A26%3A52&WIDTH=512&HEIGHT=856&LAYERS=NDVI&REQUEST=GetMap&VERSION=1.3.0"
}