{
    "headers": {
        "User-Agent": "sentinelhub-py/v3.0.2"
    },
    "payload": null,
    "timestamp": "2020-04-28T20:52:01.015917",
    "url": "https://services.sentinel-hub.com/ogc/wms/4ddaf7ef-5547-43fd-b53c-16abbf76d393?SERVICE=wms&WARNINGS=False&MAXCC=100.0&BBOX=-14.209739586312066%2C-75.63965014888008%2C-14.206998124239671%2C-75.63632248518424&FORMAT=image%2Fpng&CRS=EPSG%3A4326&TIME=2018-06-30T15%3A17%3A02%2F2018-06-30T15%3A17%3A02&WIDTH=512&HEIGHT=856&LAYERS=NDVI&REQUEST=GetMap&VERSION=1.3.0"
}