{
    "headers": {
        "User-Agent": "sentinelhub-py/v3.0.2"
    },
    "payload": null,
    "timestamp": "2020-04-28T19:17:02.391738",
    "url": "https://services.sentinel-hub.com/ogc/wms/4ddaf7ef-5547-43fd-b53c-16abbf76d393?SERVICE=wms&WARNINGS=False&MAXCC=100.0&BBOX=-14.203383890611855%2C-75.64498414018%2C-14.20062882414364%2C-75.64164955317383&FORMAT=image%2Fpng&CRS=EPSG%3A4326&TIME=2018-05-16T15%3A20%3A17%2F2018-05-16T15%3A20%3A17&WIDTH=512&HEIGHT=856&LAYERS=NDVI&REQUEST=GetMap&VERSION=1.3.0"
}