{
    "headers": {
        "User-Agent": "sentinelhub-py/v3.0.2"
    },
    "payload": null,
    "timestamp": "2020-04-29T00:57:26.528002",
    "url": "https://services.sentinel-hub.com/ogc/wms/4ddaf7ef-5547-43fd-b53c-16abbf76d393?SERVICE=wms&WARNINGS=False&MAXCC=100.0&BBOX=-14.197881148780363%2C-75.6469826482682%2C-14.19514832766311%2C-75.64368793366349&FORMAT=image%2Fpng&CRS=EPSG%3A4326&TIME=2019-03-12T15%3A27%3A56%2F2019-03-12T15%3A27%3A56&WIDTH=512&HEIGHT=856&LAYERS=NDVI&REQUEST=GetMap&VERSION=1.3.0"
}