{
    "headers": {
        "User-Agent": "sentinelhub-py/v3.0.2"
    },
    "payload": null,
    "timestamp": "2020-04-28T18:40:57.762888",
    "url": "https://services.sentinel-hub.com/ogc/wms/4ddaf7ef-5547-43fd-b53c-16abbf76d393?SERVICE=wms&WARNINGS=False&MAXCC=100.0&BBOX=-14.20062882414364%2C-75.64298408105815%2C-14.197876401443217%2C-75.6396578867764&FORMAT=image%2Fpng&CRS=EPSG%3A4326&TIME=2019-08-14T15%3A27%3A04%2F2019-08-14T15%3A27%3A04&WIDTH=512&HEIGHT=856&LAYERS=NDVI&REQUEST=GetMap&VERSION=1.3.0"
}