{
    "headers": {
        "User-Agent": "sentinelhub-py/v3.0.2"
    },
    "payload": null,
    "timestamp": "2020-04-28T19:02:18.869532",
    "url": "https://services.sentinel-hub.com/ogc/wms/4ddaf7ef-5547-43fd-b53c-16abbf76d393?SERVICE=wms&WARNINGS=False&MAXCC=100.0&BBOX=-14.202454024468352%2C-75.64231663022875%2C-14.199701335951724%2C-75.63898926117189&FORMAT=image%2Fpng&CRS=EPSG%3A4326&TIME=2018-04-16T15%3A26%3A49%2F2018-04-16T15%3A26%3A49&WIDTH=512&HEIGHT=856&LAYERS=NDVI&REQUEST=GetMap&VERSION=1.3.0"
}