{
    "headers": {
        "User-Agent": "sentinelhub-py/v3.0.2"
    },
    "payload": null,
    "timestamp": "2020-04-28T21:41:12.172665",
    "url": "https://services.sentinel-hub.com/ogc/wms/4ddaf7ef-5547-43fd-b53c-16abbf76d393?SERVICE=wms&WARNINGS=False&MAXCC=100.0&BBOX=-14.212491790499048%2C-75.64166104353744%2C-14.209739586312066%2C-75.63832148728072&FORMAT=image%2Fpng&CRS=EPSG%3A4326&TIME=2019-09-28T15%3A26%3A59%2F2019-09-28T15%3A26%3A59&WIDTH=512&HEIGHT=856&LAYERS=NDVI&REQUEST=GetMap&VERSION=1.3.0"
}