{
    "headers": {
        "User-Agent": "sentinelhub-py/v3.0.2"
    },
    "payload": null,
    "timestamp": "2020-04-28T20:45:37.398276",
    "url": "https://services.sentinel-hub.com/ogc/wms/4ddaf7ef-5547-43fd-b53c-16abbf76d393?SERVICE=wms&WARNINGS=False&MAXCC=100.0&BBOX=-14.20885416235629%2C-75.64298986878343%2C-14.206095306337506%2C-75.63965014888008&FORMAT=image%2Fpng&CRS=EPSG%3A4326&TIME=2019-11-17T15%3A26%3A59%2F2019-11-17T15%3A26%3A59&WIDTH=512&HEIGHT=856&LAYERS=NDVI&REQUEST=GetMap&VERSION=1.3.0"
}