{
    "headers": {
        "User-Agent": "sentinelhub-py/v3.0.2"
    },
    "payload": null,
    "timestamp": "2020-04-29T01:20:20.418755",
    "url": "https://services.sentinel-hub.com/ogc/wms/4ddaf7ef-5547-43fd-b53c-16abbf76d393?SERVICE=wms&WARNINGS=False&MAXCC=100.0&BBOX=-14.200586462611307%2C-75.64898805011781%2C-14.1978903845171%2C-75.64570305607081&FORMAT=image%2Fpng&CRS=EPSG%3A4326&TIME=2018-03-27T15%3A17%3A02%2F2018-03-27T15%3A17%3A02&WIDTH=512&HEIGHT=856&LAYERS=NDVI&REQUEST=GetMap&VERSION=1.3.0"
}