{
    "headers": {
        "User-Agent": "sentinelhub-py/v3.0.2"
    },
    "payload": null,
    "timestamp": "2020-04-28T19:40:07.414962",
    "url": "https://services.sentinel-hub.com/ogc/wms/4ddaf7ef-5547-43fd-b53c-16abbf76d393?SERVICE=wms&WARNINGS=False&MAXCC=100.0&BBOX=-14.20521201651521%2C-75.64431888131925%2C-14.202454024468352%2C-75.64098212423809&FORMAT=image%2Fpng&CRS=EPSG%3A4326&TIME=2017-01-01T15%3A18%3A50%2F2017-01-01T15%3A18%3A50&WIDTH=512&HEIGHT=856&LAYERS=NDVI&REQUEST=GetMap&VERSION=1.3.0"
}