{
    "headers": {
        "User-Agent": "sentinelhub-py/v3.0.2"
    },
    "payload": null,
    "timestamp": "2020-04-28T22:50:08.979173",
    "url": "https://services.sentinel-hub.com/ogc/wms/4ddaf7ef-5547-43fd-b53c-16abbf76d393?SERVICE=wms&WARNINGS=False&MAXCC=100.0&BBOX=-14.198732364113775%2C-75.64364239237688%2C-14.196024977214783%2C-75.64034854294998&FORMAT=image%2Fpng&CRS=EPSG%3A4326&TIME=2017-11-12T15%3A20%3A16%2F2017-11-12T15%3A20%3A16&WIDTH=512&HEIGHT=856&LAYERS=NDVI&REQUEST=GetMap&VERSION=1.3.0"
}