{
    "headers": {
        "User-Agent": "sentinelhub-py/v3.0.2"
    },
    "payload": null,
    "timestamp": "2020-04-28T23:34:05.236868",
    "url": "https://services.sentinel-hub.com/ogc/wms/4ddaf7ef-5547-43fd-b53c-16abbf76d393?SERVICE=wms&WARNINGS=False&MAXCC=100.0&BBOX=-14.193291049214046%2C-75.64561150025328%2C-14.190610001340819%2C-75.64234056627969&FORMAT=image%2Fpng&CRS=EPSG%3A4326&TIME=2019-05-16T15%3A27%3A06%2F2019-05-16T15%3A27%3A06&WIDTH=512&HEIGHT=856&LAYERS=NDVI&REQUEST=GetMap&VERSION=1.3.0"
}