{
    "headers": {
        "User-Agent": "sentinelhub-py/v3.0.2"
    },
    "payload": null,
    "timestamp": "2020-04-28T21:58:55.461520",
    "url": "https://services.sentinel-hub.com/ogc/wms/4ddaf7ef-5547-43fd-b53c-16abbf76d393?SERVICE=wms&WARNINGS=False&MAXCC=100.0&BBOX=-14.214318541860234%2C-75.64099785604193%2C-14.211559560260621%2C-75.63765440850564&FORMAT=image%2Fpng&CRS=EPSG%3A4326&TIME=2018-03-02T15%3A23%3A24%2F2018-03-02T15%3A23%3A24&WIDTH=512&HEIGHT=856&LAYERS=NDVI&REQUEST=GetMap&VERSION=1.3.0"
}