{
    "headers": {
        "User-Agent": "sentinelhub-py/v3.0.2"
    },
    "payload": null,
    "timestamp": "2020-04-28T19:38:14.386437",
    "url": "https://services.sentinel-hub.com/ogc/wms/4ddaf7ef-5547-43fd-b53c-16abbf76d393?SERVICE=wms&WARNINGS=False&MAXCC=100.0&BBOX=-14.20428015816881%2C-75.64164955317383%2C-14.201527268326426%2C-75.63832124398837&FORMAT=image%2Fpng&CRS=EPSG%3A4326&TIME=2019-11-02T15%3A26%3A58%2F2019-11-02T15%3A26%3A58&WIDTH=512&HEIGHT=856&LAYERS=NDVI&REQUEST=GetMap&VERSION=1.3.0"
}