{
    "headers": {
        "User-Agent": "sentinelhub-py/v3.0.2"
    },
    "payload": null,
    "timestamp": "2020-04-28T20:35:11.754590",
    "url": "https://services.sentinel-hub.com/ogc/wms/4ddaf7ef-5547-43fd-b53c-16abbf76d393?SERVICE=wms&WARNINGS=False&MAXCC=100.0&BBOX=-14.20885416235629%2C-75.64298986878343%2C-14.206095306337506%2C-75.63965014888008&FORMAT=image%2Fpng&CRS=EPSG%3A4326&TIME=2017-11-07T15%3A23%3A24%2F2017-11-07T15%3A23%3A24&WIDTH=512&HEIGHT=856&LAYERS=NDVI&REQUEST=GetMap&VERSION=1.3.0"
}