{
    "headers": {
        "User-Agent": "sentinelhub-py/v3.0.2"
    },
    "payload": null,
    "timestamp": "2020-04-28T21:51:14.441109",
    "url": "https://services.sentinel-hub.com/ogc/wms/4ddaf7ef-5547-43fd-b53c-16abbf76d393?SERVICE=wms&WARNINGS=False&MAXCC=100.0&BBOX=-14.213384589206255%2C-75.63832148728072%2C-14.210630908493748%2C-75.63498773608408&FORMAT=image%2Fpng&CRS=EPSG%3A4326&TIME=2019-04-11T15%3A42%3A13%2F2019-04-11T15%3A42%3A13&WIDTH=512&HEIGHT=856&LAYERS=NDVI&REQUEST=GetMap&VERSION=1.3.0"
}