{
    "headers": {
        "User-Agent": "sentinelhub-py/v3.0.2"
    },
    "payload": null,
    "timestamp": "2020-04-28T22:29:54.095113",
    "url": "https://services.sentinel-hub.com/ogc/wms/4ddaf7ef-5547-43fd-b53c-16abbf76d393?SERVICE=wms&WARNINGS=False&MAXCC=100.0&BBOX=-14.196068495618299%2C-75.64763941311051%2C-14.193355636804679%2C-75.64434649855319&FORMAT=image%2Fpng&CRS=EPSG%3A4326&TIME=2018-09-28T15%3A24%3A18%2F2018-09-28T15%3A24%3A18&WIDTH=512&HEIGHT=856&LAYERS=NDVI&REQUEST=GetMap&VERSION=1.3.0"
}