{
    "headers": {
        "User-Agent": "sentinelhub-py/v3.0.2"
    },
    "payload": null,
    "timestamp": "2020-04-28T23:54:27.824111",
    "url": "https://services.sentinel-hub.com/ogc/wms/4ddaf7ef-5547-43fd-b53c-16abbf76d393?SERVICE=wms&WARNINGS=False&MAXCC=100.0&BBOX=-14.196085894026025%2C-75.6536477328085%2C-14.193419099501112%2C-75.6503776656775&FORMAT=image%2Fpng&CRS=EPSG%3A4326&TIME=2018-09-13T15%3A17%3A00%2F2018-09-13T15%3A17%3A00&WIDTH=512&HEIGHT=856&LAYERS=NDVI&REQUEST=GetMap&VERSION=1.3.0"
}