{
    "headers": {
        "User-Agent": "sentinelhub-py/v3.0.2"
    },
    "payload": null,
    "timestamp": "2020-04-28T21:27:42.413140",
    "url": "https://services.sentinel-hub.com/ogc/wms/4ddaf7ef-5547-43fd-b53c-16abbf76d393?SERVICE=wms&WARNINGS=False&MAXCC=100.0&BBOX=-14.211559560260621%2C-75.63898670766262%2C-14.208809605114135%2C-75.63565550101005&FORMAT=image%2Fpng&CRS=EPSG%3A4326&TIME=2019-10-23T15%3A26%3A59%2F2019-10-23T15%3A26%3A59&WIDTH=512&HEIGHT=856&LAYERS=NDVI&REQUEST=GetMap&VERSION=1.3.0"
}