{
    "headers": {
        "User-Agent": "sentinelhub-py/v3.0.2"
    },
    "payload": null,
    "timestamp": "2020-04-28T20:10:46.818684",
    "url": "https://services.sentinel-hub.com/ogc/wms/4ddaf7ef-5547-43fd-b53c-16abbf76d393?SERVICE=wms&WARNINGS=False&MAXCC=100.0&BBOX=-14.20702879053244%2C-75.64365231081416%2C-14.20428015816881%2C-75.64031869971863&FORMAT=image%2Fpng&CRS=EPSG%3A4326&TIME=2018-09-13T15%3A17%3A00%2F2018-09-13T15%3A17%3A00&WIDTH=512&HEIGHT=856&LAYERS=NDVI&REQUEST=GetMap&VERSION=1.3.0"
}