{
    "headers": {
        "User-Agent": "sentinelhub-py/v3.0.2"
    },
    "payload": null,
    "timestamp": "2020-04-28T19:54:25.112097",
    "url": "https://services.sentinel-hub.com/ogc/wms/4ddaf7ef-5547-43fd-b53c-16abbf76d393?SERVICE=wms&WARNINGS=False&MAXCC=100.0&BBOX=-14.206095306337506%2C-75.64098212423809%2C-14.203351509792409%2C-75.63765710540375&FORMAT=image%2Fpng&CRS=EPSG%3A4326&TIME=2017-09-28T15%3A17%3A00%2F2017-09-28T15%3A17%3A00&WIDTH=512&HEIGHT=856&LAYERS=NDVI&REQUEST=GetMap&VERSION=1.3.0"
}