{
    "headers": {
        "User-Agent": "sentinelhub-py/v3.0.2"
    },
    "payload": null,
    "timestamp": "2020-04-28T23:08:11.646009",
    "url": "https://services.sentinel-hub.com/ogc/wms/4ddaf7ef-5547-43fd-b53c-16abbf76d393?SERVICE=wms&WARNINGS=False&MAXCC=100.0&BBOX=-14.199663327203533%2C-75.64632350714204%2C-14.196958888817509%2C-75.64303695733564&FORMAT=image%2Fpng&CRS=EPSG%3A4326&TIME=2019-03-17T15%3A27%3A39%2F2019-03-17T15%3A27%3A39&WIDTH=512&HEIGHT=856&LAYERS=NDVI&REQUEST=GetMap&VERSION=1.3.0"
}