{
    "headers": {
        "User-Agent": "sentinelhub-py/v3.0.2"
    },
    "payload": null,
    "timestamp": "2020-04-29T00:10:30.236310",
    "url": "https://services.sentinel-hub.com/ogc/wms/4ddaf7ef-5547-43fd-b53c-16abbf76d393?SERVICE=wms&WARNINGS=False&MAXCC=100.0&BBOX=-14.195132802468311%2C-75.64495509648042%2C-14.192429748404132%2C-75.64166749773169&FORMAT=image%2Fpng&CRS=EPSG%3A4326&TIME=2019-08-04T15%3A27%3A05%2F2019-08-04T15%3A27%3A05&WIDTH=512&HEIGHT=856&LAYERS=NDVI&REQUEST=GetMap&VERSION=1.3.0"
}