{
    "headers": {
        "User-Agent": "sentinelhub-py/v3.0.2"
    },
    "payload": null,
    "timestamp": "2020-04-28T21:02:52.500380",
    "url": "https://services.sentinel-hub.com/ogc/wms/4ddaf7ef-5547-43fd-b53c-16abbf76d393?SERVICE=wms&WARNINGS=False&MAXCC=100.0&BBOX=-14.210673059652205%2C-75.64232428108325%2C-14.207924450844159%2C-75.63898670766262&FORMAT=image%2Fpng&CRS=EPSG%3A4326&TIME=2017-07-10T15%3A19%3A39%2F2017-07-10T15%3A19%3A39&WIDTH=512&HEIGHT=856&LAYERS=NDVI&REQUEST=GetMap&VERSION=1.3.0"
}