{
    "headers": {
        "User-Agent": "sentinelhub-py/v3.0.2"
    },
    "payload": null,
    "timestamp": "2020-04-28T23:19:55.955508",
    "url": "https://services.sentinel-hub.com/ogc/wms/4ddaf7ef-5547-43fd-b53c-16abbf76d393?SERVICE=wms&WARNINGS=False&MAXCC=100.0&BBOX=-14.201513798702576%2C-75.65166673445216%2C-14.198829012819262%2C-75.64838136235278&FORMAT=image%2Fpng&CRS=EPSG%3A4326&TIME=2018-11-27T15%3A26%3A54%2F2018-11-27T15%3A26%3A54&WIDTH=512&HEIGHT=856&LAYERS=NDVI&REQUEST=GetMap&VERSION=1.3.0"
}