{
    "headers": {
        "User-Agent": "sentinelhub-py/v3.0.2"
    },
    "payload": null,
    "timestamp": "2020-04-28T23:48:51.779991",
    "url": "https://services.sentinel-hub.com/ogc/wms/4ddaf7ef-5547-43fd-b53c-16abbf76d393?SERVICE=wms&WARNINGS=False&MAXCC=100.0&BBOX=-14.19515473241042%2C-75.65097557981476%2C-14.192480425330247%2C-75.64769678112165&FORMAT=image%2Fpng&CRS=EPSG%3A4326&TIME=2019-12-27T15%3A26%3A52%2F2019-12-27T15%3A26%3A52&WIDTH=512&HEIGHT=856&LAYERS=NDVI&REQUEST=GetMap&VERSION=1.3.0"
}