{
    "headers": {
        "User-Agent": "sentinelhub-py/v3.0.2"
    },
    "payload": null,
    "timestamp": "2020-04-29T00:39:57.671927",
    "url": "https://services.sentinel-hub.com/ogc/wms/4ddaf7ef-5547-43fd-b53c-16abbf76d393?SERVICE=wms&WARNINGS=False&MAXCC=100.0&BBOX=-14.19694295233761%2C-75.64430202199843%2C-14.194213164268845%2C-75.64100407458932&FORMAT=image%2Fpng&CRS=EPSG%3A4326&TIME=2018-05-16T15%3A20%3A17%2F2018-05-16T15%3A20%3A17&WIDTH=512&HEIGHT=856&LAYERS=NDVI&REQUEST=GetMap&VERSION=1.3.0"
}