{
    "headers": {
        "User-Agent": "sentinelhub-py/v3.0.2"
    },
    "payload": null,
    "timestamp": "2020-04-28T20:29:52.853884",
    "url": "https://services.sentinel-hub.com/ogc/wms/4ddaf7ef-5547-43fd-b53c-16abbf76d393?SERVICE=wms&WARNINGS=False&MAXCC=100.0&BBOX=-14.207924450844159%2C-75.64031869971863%2C-14.20516513033943%2C-75.6369858615888&FORMAT=image%2Fpng&CRS=EPSG%3A4326&TIME=2019-08-19T15%3A27%3A00%2F2019-08-19T15%3A27%3A00&WIDTH=512&HEIGHT=856&LAYERS=NDVI&REQUEST=GetMap&VERSION=1.3.0"
}