{
    "headers": {
        "User-Agent": "sentinelhub-py/v3.0.2"
    },
    "payload": null,
    "timestamp": "2020-04-29T00:23:50.055122",
    "url": "https://services.sentinel-hub.com/ogc/wms/4ddaf7ef-5547-43fd-b53c-16abbf76d393?SERVICE=wms&WARNINGS=False&MAXCC=100.0&BBOX=-14.19702703200722%2C-75.65031370091558%2C-14.194282863638566%2C-75.64701007809187&FORMAT=image%2Fpng&CRS=EPSG%3A4326&TIME=2020-02-10T15%3A26%3A52%2F2020-02-10T15%3A26%3A52&WIDTH=512&HEIGHT=856&LAYERS=NDVI&REQUEST=GetMap&VERSION=1.3.0"
}