{
    "headers": {
        "User-Agent": "sentinelhub-py/v3.0.2"
    },
    "payload": null,
    "timestamp": "2020-04-29T00:02:05.632694",
    "url": "https://services.sentinel-hub.com/ogc/wms/4ddaf7ef-5547-43fd-b53c-16abbf76d393?SERVICE=wms&WARNINGS=False&MAXCC=100.0&BBOX=-14.195132802468311%2C-75.64495509648042%2C-14.192429748404132%2C-75.64166749773169&FORMAT=image%2Fpng&CRS=EPSG%3A4326&TIME=2016-07-15T15%3A23%3A58%2F2016-07-15T15%3A23%3A58&WIDTH=512&HEIGHT=856&LAYERS=NDVI&REQUEST=GetMap&VERSION=1.3.0"
}