{
    "headers": {
        "User-Agent": "sentinelhub-py/v3.0.2"
    },
    "payload": null,
    "timestamp": "2020-04-28T18:55:29.350466",
    "url": "https://services.sentinel-hub.com/ogc/wms/4ddaf7ef-5547-43fd-b53c-16abbf76d393?SERVICE=wms&WARNINGS=False&MAXCC=100.0&BBOX=-14.20155933262638%2C-75.64565052221766%2C-14.198802571721302%2C-75.64231663022875&FORMAT=image%2Fpng&CRS=EPSG%3A4326&TIME=2019-07-20T15%3A27%3A03%2F2019-07-20T15%3A27%3A03&WIDTH=512&HEIGHT=856&LAYERS=NDVI&REQUEST=GetMap&VERSION=1.3.0"
}