{
    "headers": {
        "User-Agent": "sentinelhub-py/v3.0.2"
    },
    "payload": null,
    "timestamp": "2020-04-29T00:31:59.206308",
    "url": "https://services.sentinel-hub.com/ogc/wms/4ddaf7ef-5547-43fd-b53c-16abbf76d393?SERVICE=wms&WARNINGS=False&MAXCC=100.0&BBOX=-14.19796021341869%2C-75.65298643203063%2C-14.195219776748338%2C-75.64968970670726&FORMAT=image%2Fpng&CRS=EPSG%3A4326&TIME=2019-06-25T15%3A27%3A06%2F2019-06-25T15%3A27%3A06&WIDTH=512&HEIGHT=856&LAYERS=NDVI&REQUEST=GetMap&VERSION=1.3.0"
}